{
    "key": "group_5edb6b2f48276",
    "title": "Template - Investment Portfolio",
    "fields": [
        {
            "key": "field_5edb9b665347a",
            "label": "Subtitle",
            "name": "subtitle",
            "type": "text",
            "instructions": "",
            "required": 0,
            "conditional_logic": 0,
            "wrapper": {
                "width": "",
                "class": "",
                "id": ""
            },
            "default_value": "",
            "placeholder": "",
            "prepend": "",
            "append": "",
            "maxlength": ""
        },
        {
            "key": "field_5edb9b87e0cfe",
            "label": "Pie Data",
            "name": "pie_data",
            "type": "repeater",
            "instructions": "",
            "required": 0,
            "conditional_logic": 0,
            "wrapper": {
                "width": "",
                "class": "",
                "id": ""
            },
            "collapsed": "",
            "min": 0,
            "max": 0,
            "layout": "table",
            "button_label": "",
            "sub_fields": [
                {
                    "key": "field_5edb9bc3e0cff",
                    "label": "Value",
                    "name": "value",
                    "type": "textarea",
                    "instructions": "",
                    "required": 0,
                    "conditional_logic": 0,
                    "wrapper": {
                        "width": "",
                        "class": "",
                        "id": ""
                    },
                    "default_value": "",
                    "placeholder": "",
                    "maxlength": "",
                    "rows": "",
                    "new_lines": ""
                },
                {
                    "key": "field_5edb9bc8e0d00",
                    "label": "Icon",
                    "name": "icon",
                    "type": "image",
                    "instructions": "",
                    "required": 0,
                    "conditional_logic": 0,
                    "wrapper": {
                        "width": "",
                        "class": "",
                        "id": ""
                    },
                    "return_format": "array",
                    "preview_size": "medium_large",
                    "library": "all",
                    "min_width": "",
                    "min_height": "",
                    "min_size": "",
                    "max_width": "",
                    "max_height": "",
                    "max_size": "",
                    "mime_types": ""
                },
                {
                    "key": "field_5edb9bcde0d01",
                    "label": "Description",
                    "name": "description",
                    "type": "textarea",
                    "instructions": "",
                    "required": 0,
                    "conditional_logic": 0,
                    "wrapper": {
                        "width": "",
                        "class": "",
                        "id": ""
                    },
                    "default_value": "",
                    "placeholder": "",
                    "maxlength": "",
                    "rows": "",
                    "new_lines": ""
                }
            ]
        },
        {
            "key": "field_5edb9bdd993ad",
            "label": "Add Section",
            "name": "add_section_investment",
            "type": "flexible_content",
            "instructions": "",
            "required": 0,
            "conditional_logic": 0,
            "wrapper": {
                "width": "",
                "class": "",
                "id": ""
            },
            "layouts": {
                "layout_5edb9bf3757e6": {
                    "key": "layout_5edb9bf3757e6",
                    "name": "group_ebitda",
                    "label": "Group EBITDA section",
                    "display": "block",
                    "sub_fields": [
                        {
                            "key": "field_5edf5a3d70f0e",
                            "label": "Background color",
                            "name": "background_color",
                            "type": "color_picker",
                            "instructions": "",
                            "required": 0,
                            "conditional_logic": 0,
                            "wrapper": {
                                "width": "",
                                "class": "",
                                "id": ""
                            },
                            "default_value": ""
                        },
                        {
                            "key": "field_5edb9fde44895",
                            "label": "Title",
                            "name": "title",
                            "type": "text",
                            "instructions": "",
                            "required": 0,
                            "conditional_logic": 0,
                            "wrapper": {
                                "width": "",
                                "class": "",
                                "id": ""
                            },
                            "default_value": "",
                            "placeholder": "",
                            "prepend": "",
                            "append": "",
                            "maxlength": ""
                        },
                        {
                            "key": "field_5edb9fe944896",
                            "label": "Subtitle",
                            "name": "subtitle",
                            "type": "text",
                            "instructions": "",
                            "required": 0,
                            "conditional_logic": 0,
                            "wrapper": {
                                "width": "",
                                "class": "",
                                "id": ""
                            },
                            "default_value": "",
                            "placeholder": "",
                            "prepend": "",
                            "append": "",
                            "maxlength": ""
                        },
                        {
                            "key": "field_5edb9ff244897",
                            "label": "Charts Data",
                            "name": "charts_data",
                            "type": "flexible_content",
                            "instructions": "",
                            "required": 0,
                            "conditional_logic": 0,
                            "wrapper": {
                                "width": "",
                                "class": "",
                                "id": ""
                            },
                            "layouts": {
                                "layout_5edb9ffeedfde": {
                                    "key": "layout_5edb9ffeedfde",
                                    "name": "chart",
                                    "label": "Chart",
                                    "display": "block",
                                    "sub_fields": [
                                        {
                                            "key": "field_5edba07f4489e",
                                            "label": "Width",
                                            "name": "width",
                                            "type": "radio",
                                            "instructions": "",
                                            "required": 0,
                                            "conditional_logic": 0,
                                            "wrapper": {
                                                "width": "",
                                                "class": "",
                                                "id": ""
                                            },
                                            "choices": {
                                                "Half": "Half",
                                                "Fullwidth": "Fullwidth"
                                            },
                                            "allow_null": 0,
                                            "other_choice": 0,
                                            "default_value": "half",
                                            "layout": "horizontal",
                                            "return_format": "value",
                                            "save_other_choice": 0
                                        },
                                        {
                                            "key": "field_5edba00644898",
                                            "label": "Title",
                                            "name": "title",
                                            "type": "text",
                                            "instructions": "",
                                            "required": 0,
                                            "conditional_logic": 0,
                                            "wrapper": {
                                                "width": "",
                                                "class": "",
                                                "id": ""
                                            },
                                            "default_value": "",
                                            "placeholder": "",
                                            "prepend": "",
                                            "append": "",
                                            "maxlength": ""
                                        },
                                        {
                                            "key": "field_5edba4b847181",
                                            "label": "Add chart data",
                                            "name": "add_chart_data",
                                            "type": "repeater",
                                            "instructions": "",
                                            "required": 0,
                                            "conditional_logic": 0,
                                            "wrapper": {
                                                "width": "",
                                                "class": "",
                                                "id": ""
                                            },
                                            "collapsed": "",
                                            "min": 0,
                                            "max": 0,
                                            "layout": "table",
                                            "button_label": "",
                                            "sub_fields": [
                                                {
                                                    "key": "field_5edba00c44899",
                                                    "label": "Color",
                                                    "name": "color",
                                                    "type": "color_picker",
                                                    "instructions": "Text and chart color",
                                                    "required": 0,
                                                    "conditional_logic": 0,
                                                    "wrapper": {
                                                        "width": "",
                                                        "class": "",
                                                        "id": ""
                                                    },
                                                    "default_value": ""
                                                },
                                                {
                                                    "key": "field_5edba4d247182",
                                                    "label": "Value - bar width",
                                                    "name": "value",
                                                    "type": "textarea",
                                                    "instructions": "From 1 to 100.",
                                                    "required": 0,
                                                    "conditional_logic": 0,
                                                    "wrapper": {
                                                        "width": "",
                                                        "class": "",
                                                        "id": ""
                                                    },
                                                    "default_value": "",
                                                    "placeholder": "",
                                                    "maxlength": "",
                                                    "rows": "",
                                                    "new_lines": ""
                                                },
                                                {
                                                    "key": "field_5edf4b350ed2f",
                                                    "label": "Counter",
                                                    "name": "counter",
                                                    "type": "textarea",
                                                    "instructions": "HTML code for counter animation",
                                                    "required": 0,
                                                    "conditional_logic": 0,
                                                    "wrapper": {
                                                        "width": "",
                                                        "class": "",
                                                        "id": ""
                                                    },
                                                    "default_value": "",
                                                    "placeholder": "",
                                                    "maxlength": "",
                                                    "rows": "",
                                                    "new_lines": ""
                                                },
                                                {
                                                    "key": "field_5edf77436ed03",
                                                    "label": "Position",
                                                    "name": "position",
                                                    "type": "radio",
                                                    "instructions": "Counter position",
                                                    "required": 0,
                                                    "conditional_logic": 0,
                                                    "wrapper": {
                                                        "width": "",
                                                        "class": "",
                                                        "id": ""
                                                    },
                                                    "choices": {
                                                        "right": "right",
                                                        "left": "left"
                                                    },
                                                    "allow_null": 0,
                                                    "other_choice": 0,
                                                    "default_value": "right",
                                                    "layout": "horizontal",
                                                    "return_format": "value",
                                                    "save_other_choice": 0
                                                }
                                            ]
                                        }
                                    ],
                                    "min": "",
                                    "max": ""
                                },
                                "layout_5edf5d29f4a5a": {
                                    "key": "layout_5edf5d29f4a5a",
                                    "name": "chart_nav_year",
                                    "label": "Chart Year Nav",
                                    "display": "block",
                                    "sub_fields": [
                                        {
                                            "key": "field_5edf5d29f4a5b",
                                            "label": "Chart Nav",
                                            "name": "chart_nav",
                                            "type": "repeater",
                                            "instructions": "",
                                            "required": 0,
                                            "conditional_logic": 0,
                                            "wrapper": {
                                                "width": "",
                                                "class": "",
                                                "id": ""
                                            },
                                            "collapsed": "",
                                            "min": 0,
                                            "max": 0,
                                            "layout": "table",
                                            "button_label": "",
                                            "sub_fields": [
                                                {
                                                    "key": "field_5edf5d29f4a5c",
                                                    "label": "Color",
                                                    "name": "color",
                                                    "type": "color_picker",
                                                    "instructions": "",
                                                    "required": 0,
                                                    "conditional_logic": 0,
                                                    "wrapper": {
                                                        "width": "",
                                                        "class": "",
                                                        "id": ""
                                                    },
                                                    "default_value": ""
                                                },
                                                {
                                                    "key": "field_5edf5d29f4a5d",
                                                    "label": "Year",
                                                    "name": "year",
                                                    "type": "text",
                                                    "instructions": "",
                                                    "required": 0,
                                                    "conditional_logic": 0,
                                                    "wrapper": {
                                                        "width": "",
                                                        "class": "",
                                                        "id": ""
                                                    },
                                                    "default_value": "",
                                                    "placeholder": "",
                                                    "prepend": "",
                                                    "append": "",
                                                    "maxlength": ""
                                                }
                                            ]
                                        }
                                    ],
                                    "min": "",
                                    "max": ""
                                }
                            },
                            "button_label": "Add Chart",
                            "min": "",
                            "max": ""
                        }
                    ],
                    "min": "",
                    "max": ""
                },
                "layout_5edb9c0f993ae": {
                    "key": "layout_5edb9c0f993ae",
                    "name": "total_turnover_of_malls",
                    "label": "Total Turnover of malls section",
                    "display": "block",
                    "sub_fields": [
                        {
                            "key": "field_5edba0ec4489f",
                            "label": "Title",
                            "name": "title",
                            "type": "text",
                            "instructions": "",
                            "required": 0,
                            "conditional_logic": 0,
                            "wrapper": {
                                "width": "",
                                "class": "",
                                "id": ""
                            },
                            "default_value": "",
                            "placeholder": "",
                            "prepend": "",
                            "append": "",
                            "maxlength": ""
                        },
                        {
                            "key": "field_5edba0f2448a0",
                            "label": "Subtitle",
                            "name": "subtitle",
                            "type": "text",
                            "instructions": "",
                            "required": 0,
                            "conditional_logic": 0,
                            "wrapper": {
                                "width": "",
                                "class": "",
                                "id": ""
                            },
                            "default_value": "",
                            "placeholder": "",
                            "prepend": "",
                            "append": "",
                            "maxlength": ""
                        },
                        {
                            "key": "field_5edba0f8448a1",
                            "label": "Charts",
                            "name": "charts",
                            "type": "flexible_content",
                            "instructions": "",
                            "required": 0,
                            "conditional_logic": 0,
                            "wrapper": {
                                "width": "",
                                "class": "",
                                "id": ""
                            },
                            "layouts": {
                                "layout_5edba103017a7": {
                                    "key": "layout_5edba103017a7",
                                    "name": "add_chart_bar",
                                    "label": "Add Chart Bar",
                                    "display": "block",
                                    "sub_fields": [
                                        {
                                            "key": "field_5edba133448a2",
                                            "label": "Title",
                                            "name": "title",
                                            "type": "text",
                                            "instructions": "",
                                            "required": 0,
                                            "conditional_logic": 0,
                                            "wrapper": {
                                                "width": "",
                                                "class": "",
                                                "id": ""
                                            },
                                            "default_value": "",
                                            "placeholder": "",
                                            "prepend": "",
                                            "append": "",
                                            "maxlength": ""
                                        },
                                        {
                                            "key": "field_5edba139448a3",
                                            "label": "Value",
                                            "name": "value",
                                            "type": "textarea",
                                            "instructions": "",
                                            "required": 0,
                                            "conditional_logic": 0,
                                            "wrapper": {
                                                "width": "",
                                                "class": "",
                                                "id": ""
                                            },
                                            "default_value": "",
                                            "placeholder": "",
                                            "maxlength": "",
                                            "rows": "",
                                            "new_lines": ""
                                        },
                                        {
                                            "key": "field_5edba145448a4",
                                            "label": "Add Chart",
                                            "name": "add_chart_bar",
                                            "type": "repeater",
                                            "instructions": "",
                                            "required": 0,
                                            "conditional_logic": 0,
                                            "wrapper": {
                                                "width": "",
                                                "class": "",
                                                "id": ""
                                            },
                                            "collapsed": "",
                                            "min": 0,
                                            "max": 0,
                                            "layout": "table",
                                            "button_label": "",
                                            "sub_fields": [
                                                {
                                                    "key": "field_5edba16b448a5",
                                                    "label": "Color",
                                                    "name": "color",
                                                    "type": "color_picker",
                                                    "instructions": "",
                                                    "required": 0,
                                                    "conditional_logic": 0,
                                                    "wrapper": {
                                                        "width": "",
                                                        "class": "",
                                                        "id": ""
                                                    },
                                                    "default_value": ""
                                                },
                                                {
                                                    "key": "field_5edba177448a6",
                                                    "label": "Value",
                                                    "name": "value",
                                                    "type": "textarea",
                                                    "instructions": "",
                                                    "required": 0,
                                                    "conditional_logic": 0,
                                                    "wrapper": {
                                                        "width": "",
                                                        "class": "",
                                                        "id": ""
                                                    },
                                                    "default_value": "",
                                                    "placeholder": "",
                                                    "maxlength": "",
                                                    "rows": "",
                                                    "new_lines": ""
                                                },
                                                {
                                                    "key": "field_5edf57251afa5",
                                                    "label": "Counter",
                                                    "name": "counter",
                                                    "type": "textarea",
                                                    "instructions": "",
                                                    "required": 0,
                                                    "conditional_logic": 0,
                                                    "wrapper": {
                                                        "width": "",
                                                        "class": "",
                                                        "id": ""
                                                    },
                                                    "default_value": "",
                                                    "placeholder": "",
                                                    "maxlength": "",
                                                    "rows": "",
                                                    "new_lines": ""
                                                },
                                                {
                                                    "key": "field_5ee76db85b6f5",
                                                    "label": "Bar value",
                                                    "name": "bar_value",
                                                    "type": "textarea",
                                                    "instructions": "",
                                                    "required": 0,
                                                    "conditional_logic": 0,
                                                    "wrapper": {
                                                        "width": "",
                                                        "class": "",
                                                        "id": ""
                                                    },
                                                    "default_value": "",
                                                    "placeholder": "",
                                                    "maxlength": "",
                                                    "rows": "",
                                                    "new_lines": ""
                                                }
                                            ]
                                        },
                                        {
                                            "key": "field_5edba76887a16",
                                            "label": "Subtitle",
                                            "name": "subtitle",
                                            "type": "text",
                                            "instructions": "",
                                            "required": 0,
                                            "conditional_logic": 0,
                                            "wrapper": {
                                                "width": "",
                                                "class": "",
                                                "id": ""
                                            },
                                            "default_value": "",
                                            "placeholder": "",
                                            "prepend": "",
                                            "append": "",
                                            "maxlength": ""
                                        }
                                    ],
                                    "min": "",
                                    "max": ""
                                },
                                "layout_5edba22056572": {
                                    "key": "layout_5edba22056572",
                                    "name": "chart_nav",
                                    "label": "Chart Nav",
                                    "display": "block",
                                    "sub_fields": [
                                        {
                                            "key": "field_5edba22756573",
                                            "label": "Add Chart Nav",
                                            "name": "add_chart_nav",
                                            "type": "repeater",
                                            "instructions": "",
                                            "required": 0,
                                            "conditional_logic": 0,
                                            "wrapper": {
                                                "width": "",
                                                "class": "",
                                                "id": ""
                                            },
                                            "collapsed": "",
                                            "min": 0,
                                            "max": 0,
                                            "layout": "table",
                                            "button_label": "Add Nav",
                                            "sub_fields": [
                                                {
                                                    "key": "field_5edba24956575",
                                                    "label": "Color",
                                                    "name": "color",
                                                    "type": "color_picker",
                                                    "instructions": "",
                                                    "required": 0,
                                                    "conditional_logic": 0,
                                                    "wrapper": {
                                                        "width": "",
                                                        "class": "",
                                                        "id": ""
                                                    },
                                                    "default_value": ""
                                                },
                                                {
                                                    "key": "field_5edba24256574",
                                                    "label": "Year",
                                                    "name": "year",
                                                    "type": "text",
                                                    "instructions": "",
                                                    "required": 0,
                                                    "conditional_logic": 0,
                                                    "wrapper": {
                                                        "width": "",
                                                        "class": "",
                                                        "id": ""
                                                    },
                                                    "default_value": "",
                                                    "placeholder": "",
                                                    "prepend": "",
                                                    "append": "",
                                                    "maxlength": ""
                                                }
                                            ]
                                        }
                                    ],
                                    "min": "",
                                    "max": ""
                                }
                            },
                            "button_label": "Add Chart",
                            "min": "",
                            "max": ""
                        },
                        {
                            "key": "field_5edba27156576",
                            "label": "Data table",
                            "name": "add_data_table",
                            "type": "flexible_content",
                            "instructions": "",
                            "required": 0,
                            "conditional_logic": 0,
                            "wrapper": {
                                "width": "",
                                "class": "",
                                "id": ""
                            },
                            "layouts": {
                                "layout_5edba27eda6da": {
                                    "key": "layout_5edba27eda6da",
                                    "name": "data_table",
                                    "label": "Data Table",
                                    "display": "block",
                                    "sub_fields": [
                                        {
                                            "key": "field_5edba29356577",
                                            "label": "Title",
                                            "name": "title",
                                            "type": "text",
                                            "instructions": "",
                                            "required": 0,
                                            "conditional_logic": 0,
                                            "wrapper": {
                                                "width": "",
                                                "class": "",
                                                "id": ""
                                            },
                                            "default_value": "",
                                            "placeholder": "",
                                            "prepend": "",
                                            "append": "",
                                            "maxlength": ""
                                        },
                                        {
                                            "key": "field_5edba29856578",
                                            "label": "Icon",
                                            "name": "icon",
                                            "type": "image",
                                            "instructions": "",
                                            "required": 0,
                                            "conditional_logic": 0,
                                            "wrapper": {
                                                "width": "",
                                                "class": "",
                                                "id": ""
                                            },
                                            "return_format": "array",
                                            "preview_size": "medium_large",
                                            "library": "all",
                                            "min_width": "",
                                            "min_height": "",
                                            "min_size": "",
                                            "max_width": "",
                                            "max_height": "",
                                            "max_size": "",
                                            "mime_types": ""
                                        },
                                        {
                                            "key": "field_5edba2a656579",
                                            "label": "Table",
                                            "name": "table",
                                            "type": "wysiwyg",
                                            "instructions": "",
                                            "required": 0,
                                            "conditional_logic": 0,
                                            "wrapper": {
                                                "width": "",
                                                "class": "",
                                                "id": ""
                                            },
                                            "default_value": "",
                                            "tabs": "all",
                                            "toolbar": "full",
                                            "media_upload": 1,
                                            "delay": 0
                                        }
                                    ],
                                    "min": "",
                                    "max": ""
                                }
                            },
                            "button_label": "Add table",
                            "min": "",
                            "max": ""
                        }
                    ],
                    "min": "",
                    "max": ""
                },
                "layout_5edb9c36993af": {
                    "key": "layout_5edb9c36993af",
                    "name": "parallax_image",
                    "label": "Parallax Content section",
                    "display": "block",
                    "sub_fields": [
                        {
                            "key": "field_5edb9e9a993b0",
                            "label": "Image Direction",
                            "name": "image_direction",
                            "type": "radio",
                            "instructions": "",
                            "required": 0,
                            "conditional_logic": 0,
                            "wrapper": {
                                "width": "",
                                "class": "",
                                "id": ""
                            },
                            "choices": {
                                "Left": "Left",
                                "Right": "Right"
                            },
                            "allow_null": 0,
                            "other_choice": 0,
                            "default_value": "left",
                            "layout": "horizontal",
                            "return_format": "value",
                            "save_other_choice": 0
                        },
                        {
                            "key": "field_5edb9f18993b6",
                            "label": "Image",
                            "name": "image",
                            "type": "image",
                            "instructions": "",
                            "required": 0,
                            "conditional_logic": 0,
                            "wrapper": {
                                "width": "25",
                                "class": "",
                                "id": ""
                            },
                            "return_format": "array",
                            "preview_size": "medium_large",
                            "library": "all",
                            "min_width": "",
                            "min_height": "",
                            "min_size": "",
                            "max_width": "",
                            "max_height": "",
                            "max_size": "",
                            "mime_types": ""
                        },
                        {
                            "key": "field_5edb9f39993b7",
                            "label": "Title",
                            "name": "title",
                            "type": "text",
                            "instructions": "",
                            "required": 0,
                            "conditional_logic": 0,
                            "wrapper": {
                                "width": "",
                                "class": "",
                                "id": ""
                            },
                            "default_value": "",
                            "placeholder": "",
                            "prepend": "",
                            "append": "",
                            "maxlength": ""
                        },
                        {
                            "key": "field_5edb9f3d993b8",
                            "label": "Description",
                            "name": "description",
                            "type": "wysiwyg",
                            "instructions": "",
                            "required": 0,
                            "conditional_logic": 0,
                            "wrapper": {
                                "width": "50",
                                "class": "",
                                "id": ""
                            },
                            "default_value": "",
                            "tabs": "all",
                            "toolbar": "full",
                            "media_upload": 1,
                            "delay": 0
                        },
                        {
                            "key": "field_5eddf1874e5ec",
                            "label": "More Content",
                            "name": "more_content",
                            "type": "wysiwyg",
                            "instructions": "",
                            "required": 0,
                            "conditional_logic": 0,
                            "wrapper": {
                                "width": "50",
                                "class": "",
                                "id": ""
                            },
                            "default_value": "",
                            "tabs": "all",
                            "toolbar": "full",
                            "media_upload": 1,
                            "delay": 0
                        },
                        {
                            "key": "field_5eddf1964e5ed",
                            "label": "Button - More",
                            "name": "button_more",
                            "type": "text",
                            "instructions": "",
                            "required": 0,
                            "conditional_logic": 0,
                            "wrapper": {
                                "width": "50",
                                "class": "",
                                "id": ""
                            },
                            "default_value": "",
                            "placeholder": "",
                            "prepend": "",
                            "append": "",
                            "maxlength": ""
                        },
                        {
                            "key": "field_5eddf1ab4e5ee",
                            "label": "Button - Less",
                            "name": "button_less",
                            "type": "text",
                            "instructions": "",
                            "required": 0,
                            "conditional_logic": 0,
                            "wrapper": {
                                "width": "50",
                                "class": "",
                                "id": ""
                            },
                            "default_value": "",
                            "placeholder": "",
                            "prepend": "",
                            "append": "",
                            "maxlength": ""
                        }
                    ],
                    "min": "",
                    "max": ""
                },
                "layout_5edb9ed6993b1": {
                    "key": "layout_5edb9ed6993b1",
                    "name": "icons",
                    "label": "Icons section",
                    "display": "block",
                    "sub_fields": [
                        {
                            "key": "field_5edb9edc993b2",
                            "label": "Add Icons",
                            "name": "add_icons",
                            "type": "repeater",
                            "instructions": "",
                            "required": 0,
                            "conditional_logic": 0,
                            "wrapper": {
                                "width": "",
                                "class": "",
                                "id": ""
                            },
                            "collapsed": "",
                            "min": 0,
                            "max": 0,
                            "layout": "table",
                            "button_label": "",
                            "sub_fields": [
                                {
                                    "key": "field_5edb9ef6993b4",
                                    "label": "Icon",
                                    "name": "icon",
                                    "type": "image",
                                    "instructions": "",
                                    "required": 0,
                                    "conditional_logic": 0,
                                    "wrapper": {
                                        "width": "",
                                        "class": "",
                                        "id": ""
                                    },
                                    "return_format": "array",
                                    "preview_size": "medium_large",
                                    "library": "all",
                                    "min_width": "",
                                    "min_height": "",
                                    "min_size": "",
                                    "max_width": "",
                                    "max_height": "",
                                    "max_size": "",
                                    "mime_types": ""
                                },
                                {
                                    "key": "field_5edb9eed993b3",
                                    "label": "Title",
                                    "name": "title",
                                    "type": "textarea",
                                    "instructions": "",
                                    "required": 0,
                                    "conditional_logic": 0,
                                    "wrapper": {
                                        "width": "",
                                        "class": "",
                                        "id": ""
                                    },
                                    "default_value": "",
                                    "placeholder": "",
                                    "maxlength": "",
                                    "rows": "",
                                    "new_lines": ""
                                },
                                {
                                    "key": "field_5edb9f07993b5",
                                    "label": "Description",
                                    "name": "description",
                                    "type": "textarea",
                                    "instructions": "",
                                    "required": 0,
                                    "conditional_logic": 0,
                                    "wrapper": {
                                        "width": "",
                                        "class": "",
                                        "id": ""
                                    },
                                    "default_value": "",
                                    "placeholder": "",
                                    "maxlength": "",
                                    "rows": "",
                                    "new_lines": ""
                                }
                            ]
                        }
                    ],
                    "min": "",
                    "max": ""
                }
            },
            "button_label": "Add Section",
            "min": "",
            "max": ""
        }
    ],
    "location": [
        [
            {
                "param": "page_template",
                "operator": "==",
                "value": "template-investment.php"
            }
        ]
    ],
    "menu_order": 0,
    "position": "normal",
    "style": "default",
    "label_placement": "top",
    "instruction_placement": "label",
    "hide_on_screen": "",
    "active": 1,
    "description": "",
    "modified": 1592225260
}