{
    "key": "group_5edb6afe64068",
    "title": "Template - Financial  Performance",
    "fields": [
        {
            "key": "field_5edb6fd71eea4",
            "label": "Subtitle",
            "name": "subtitle",
            "type": "text",
            "instructions": "",
            "required": 0,
            "conditional_logic": 0,
            "wrapper": {
                "width": "",
                "class": "",
                "id": ""
            },
            "default_value": "",
            "placeholder": "",
            "prepend": "",
            "append": "",
            "maxlength": ""
        },
        {
            "key": "field_5edb70441eea5",
            "label": "Parallax Image",
            "name": "parallax_image",
            "type": "image",
            "instructions": "",
            "required": 0,
            "conditional_logic": 0,
            "wrapper": {
                "width": "",
                "class": "",
                "id": ""
            },
            "return_format": "array",
            "preview_size": "medium_large",
            "library": "all",
            "min_width": "",
            "min_height": "",
            "min_size": "",
            "max_width": "",
            "max_height": "",
            "max_size": "",
            "mime_types": ""
        },
        {
            "key": "field_5edb6f761eea2",
            "label": "Add Section",
            "name": "add_section",
            "type": "flexible_content",
            "instructions": "",
            "required": 0,
            "conditional_logic": 0,
            "wrapper": {
                "width": "",
                "class": "",
                "id": ""
            },
            "layouts": {
                "layout_5edb6f8abf5fb": {
                    "key": "layout_5edb6f8abf5fb",
                    "name": "numerical_figures",
                    "label": "Numerical figures section",
                    "display": "block",
                    "sub_fields": [
                        {
                            "key": "field_5edb709a1eea6",
                            "label": "Title",
                            "name": "title",
                            "type": "text",
                            "instructions": "",
                            "required": 0,
                            "conditional_logic": 0,
                            "wrapper": {
                                "width": "",
                                "class": "",
                                "id": ""
                            },
                            "default_value": "",
                            "placeholder": "",
                            "prepend": "",
                            "append": "",
                            "maxlength": ""
                        },
                        {
                            "key": "field_5edb709f1eea7",
                            "label": "Icon",
                            "name": "icon",
                            "type": "image",
                            "instructions": "",
                            "required": 0,
                            "conditional_logic": 0,
                            "wrapper": {
                                "width": "",
                                "class": "",
                                "id": ""
                            },
                            "return_format": "array",
                            "preview_size": "medium_large",
                            "library": "all",
                            "min_width": "",
                            "min_height": "",
                            "min_size": "",
                            "max_width": "",
                            "max_height": "",
                            "max_size": "",
                            "mime_types": ""
                        },
                        {
                            "key": "field_5edb70ae1eea8",
                            "label": "Revenue repeater",
                            "name": "numerical_figures_repeater",
                            "type": "repeater",
                            "instructions": "",
                            "required": 0,
                            "conditional_logic": 0,
                            "wrapper": {
                                "width": "",
                                "class": "",
                                "id": ""
                            },
                            "collapsed": "",
                            "min": 0,
                            "max": 0,
                            "layout": "table",
                            "button_label": "",
                            "sub_fields": [
                                {
                                    "key": "field_5edb70d41eeaa",
                                    "label": "Value 1",
                                    "name": "value_1",
                                    "type": "textarea",
                                    "instructions": "",
                                    "required": 0,
                                    "conditional_logic": 0,
                                    "wrapper": {
                                        "width": "",
                                        "class": "",
                                        "id": ""
                                    },
                                    "default_value": "",
                                    "placeholder": "",
                                    "maxlength": "",
                                    "rows": "",
                                    "new_lines": ""
                                },
                                {
                                    "key": "field_5edb70db1eeab",
                                    "label": "Subtitle",
                                    "name": "subtitle",
                                    "type": "text",
                                    "instructions": "",
                                    "required": 0,
                                    "conditional_logic": 0,
                                    "wrapper": {
                                        "width": "",
                                        "class": "",
                                        "id": ""
                                    },
                                    "default_value": "",
                                    "placeholder": "",
                                    "prepend": "",
                                    "append": "",
                                    "maxlength": ""
                                },
                                {
                                    "key": "field_5edb70e21eeac",
                                    "label": "Description",
                                    "name": "description",
                                    "type": "textarea",
                                    "instructions": "",
                                    "required": 0,
                                    "conditional_logic": 0,
                                    "wrapper": {
                                        "width": "",
                                        "class": "",
                                        "id": ""
                                    },
                                    "default_value": "",
                                    "placeholder": "",
                                    "maxlength": "",
                                    "rows": "",
                                    "new_lines": "br"
                                },
                                {
                                    "key": "field_5edb70ea1eead",
                                    "label": "Value 2 - Revenue",
                                    "name": "value_2",
                                    "type": "textarea",
                                    "instructions": "",
                                    "required": 0,
                                    "conditional_logic": 0,
                                    "wrapper": {
                                        "width": "",
                                        "class": "",
                                        "id": ""
                                    },
                                    "default_value": "",
                                    "placeholder": "",
                                    "maxlength": "",
                                    "rows": "",
                                    "new_lines": ""
                                },
                                {
                                    "key": "field_5edb71041eeaf",
                                    "label": "Revenue Description",
                                    "name": "revenue_description",
                                    "type": "textarea",
                                    "instructions": "",
                                    "required": 0,
                                    "conditional_logic": 0,
                                    "wrapper": {
                                        "width": "",
                                        "class": "",
                                        "id": ""
                                    },
                                    "default_value": "",
                                    "placeholder": "",
                                    "maxlength": "",
                                    "rows": "",
                                    "new_lines": "br"
                                }
                            ]
                        }
                    ],
                    "min": "",
                    "max": ""
                },
                "layout_5edb717e684e2": {
                    "key": "layout_5edb717e684e2",
                    "name": "share_capital_increase",
                    "label": "Share Capital Increase section",
                    "display": "block",
                    "sub_fields": [
                        {
                            "key": "field_5edb7183684e3",
                            "label": "Background Image",
                            "name": "background_image",
                            "type": "image",
                            "instructions": "",
                            "required": 0,
                            "conditional_logic": 0,
                            "wrapper": {
                                "width": "20",
                                "class": "",
                                "id": ""
                            },
                            "return_format": "array",
                            "preview_size": "medium_large",
                            "library": "all",
                            "min_width": "",
                            "min_height": "",
                            "min_size": "",
                            "max_width": "",
                            "max_height": "",
                            "max_size": "",
                            "mime_types": ""
                        },
                        {
                            "key": "field_5edb71a7684e4",
                            "label": "Title",
                            "name": "title",
                            "type": "text",
                            "instructions": "",
                            "required": 0,
                            "conditional_logic": 0,
                            "wrapper": {
                                "width": "",
                                "class": "",
                                "id": ""
                            },
                            "default_value": "",
                            "placeholder": "",
                            "prepend": "",
                            "append": "",
                            "maxlength": ""
                        },
                        {
                            "key": "field_5edb71b3684e5",
                            "label": "Content Top",
                            "name": "content_top",
                            "type": "wysiwyg",
                            "instructions": "",
                            "required": 0,
                            "conditional_logic": 0,
                            "wrapper": {
                                "width": "50",
                                "class": "",
                                "id": ""
                            },
                            "default_value": "",
                            "tabs": "all",
                            "toolbar": "full",
                            "media_upload": 1,
                            "delay": 0
                        },
                        {
                            "key": "field_5edb71ce684e6",
                            "label": "Content Bottom",
                            "name": "content_bottom",
                            "type": "wysiwyg",
                            "instructions": "",
                            "required": 0,
                            "conditional_logic": 0,
                            "wrapper": {
                                "width": "50",
                                "class": "",
                                "id": ""
                            },
                            "default_value": "",
                            "tabs": "all",
                            "toolbar": "full",
                            "media_upload": 1,
                            "delay": 0
                        },
                        {
                            "key": "field_5edb71ed684e7",
                            "label": "Table - Data",
                            "name": "table",
                            "type": "wysiwyg",
                            "instructions": "",
                            "required": 0,
                            "conditional_logic": 0,
                            "wrapper": {
                                "width": "",
                                "class": "",
                                "id": ""
                            },
                            "default_value": "",
                            "tabs": "all",
                            "toolbar": "full",
                            "media_upload": 1,
                            "delay": 0
                        },
                        {
                            "key": "field_5edb7200684e8",
                            "label": "Charts Data",
                            "name": "charts_data",
                            "type": "flexible_content",
                            "instructions": "",
                            "required": 0,
                            "conditional_logic": 0,
                            "wrapper": {
                                "width": "",
                                "class": "",
                                "id": ""
                            },
                            "layouts": {
                                "layout_5edb720dbd3c0": {
                                    "key": "layout_5edb720dbd3c0",
                                    "name": "charts",
                                    "label": "Charts",
                                    "display": "block",
                                    "sub_fields": [
                                        {
                                            "key": "field_5edb7239684ea",
                                            "label": "Year",
                                            "name": "year",
                                            "type": "text",
                                            "instructions": "",
                                            "required": 0,
                                            "conditional_logic": 0,
                                            "wrapper": {
                                                "width": "",
                                                "class": "",
                                                "id": ""
                                            },
                                            "default_value": "",
                                            "placeholder": "",
                                            "prepend": "",
                                            "append": "",
                                            "maxlength": ""
                                        },
                                        {
                                            "key": "field_5edb723d684eb",
                                            "label": "Add data",
                                            "name": "add_data",
                                            "type": "repeater",
                                            "instructions": "",
                                            "required": 0,
                                            "conditional_logic": 0,
                                            "wrapper": {
                                                "width": "",
                                                "class": "",
                                                "id": ""
                                            },
                                            "collapsed": "",
                                            "min": 0,
                                            "max": 0,
                                            "layout": "table",
                                            "button_label": "Add data",
                                            "sub_fields": [
                                                {
                                                    "key": "field_5edb7266684ec",
                                                    "label": "Color",
                                                    "name": "color",
                                                    "type": "color_picker",
                                                    "instructions": "",
                                                    "required": 0,
                                                    "conditional_logic": 0,
                                                    "wrapper": {
                                                        "width": "",
                                                        "class": "",
                                                        "id": ""
                                                    },
                                                    "default_value": ""
                                                },
                                                {
                                                    "key": "field_5edb726e684ed",
                                                    "label": "Value",
                                                    "name": "value",
                                                    "type": "textarea",
                                                    "instructions": "",
                                                    "required": 0,
                                                    "conditional_logic": 0,
                                                    "wrapper": {
                                                        "width": "",
                                                        "class": "",
                                                        "id": ""
                                                    },
                                                    "default_value": "",
                                                    "placeholder": "",
                                                    "maxlength": "",
                                                    "rows": "",
                                                    "new_lines": ""
                                                },
                                                {
                                                    "key": "field_5ee75d65a4194",
                                                    "label": "Title",
                                                    "name": "title",
                                                    "type": "text",
                                                    "instructions": "",
                                                    "required": 0,
                                                    "conditional_logic": 0,
                                                    "wrapper": {
                                                        "width": "",
                                                        "class": "",
                                                        "id": ""
                                                    },
                                                    "default_value": "",
                                                    "placeholder": "",
                                                    "prepend": "",
                                                    "append": "",
                                                    "maxlength": ""
                                                }
                                            ]
                                        }
                                    ],
                                    "min": "",
                                    "max": ""
                                },
                                "layout_5edb7224684e9": {
                                    "key": "layout_5edb7224684e9",
                                    "name": "chart_nav",
                                    "label": "Chart Nav",
                                    "display": "block",
                                    "sub_fields": [
                                        {
                                            "key": "field_5edb729b684ee",
                                            "label": "Chart Color Nav",
                                            "name": "chart_color_nav",
                                            "type": "repeater",
                                            "instructions": "",
                                            "required": 0,
                                            "conditional_logic": 0,
                                            "wrapper": {
                                                "width": "",
                                                "class": "",
                                                "id": ""
                                            },
                                            "collapsed": "",
                                            "min": 0,
                                            "max": 0,
                                            "layout": "table",
                                            "button_label": "",
                                            "sub_fields": [
                                                {
                                                    "key": "field_5edb72a8684ef",
                                                    "label": "Color",
                                                    "name": "color",
                                                    "type": "color_picker",
                                                    "instructions": "",
                                                    "required": 0,
                                                    "conditional_logic": 0,
                                                    "wrapper": {
                                                        "width": "",
                                                        "class": "",
                                                        "id": ""
                                                    },
                                                    "default_value": ""
                                                },
                                                {
                                                    "key": "field_5edb72b0684f0",
                                                    "label": "Title",
                                                    "name": "title",
                                                    "type": "text",
                                                    "instructions": "",
                                                    "required": 0,
                                                    "conditional_logic": 0,
                                                    "wrapper": {
                                                        "width": "",
                                                        "class": "",
                                                        "id": ""
                                                    },
                                                    "default_value": "",
                                                    "placeholder": "",
                                                    "prepend": "",
                                                    "append": "",
                                                    "maxlength": ""
                                                }
                                            ]
                                        }
                                    ],
                                    "min": "",
                                    "max": ""
                                }
                            },
                            "button_label": "Add Chart",
                            "min": "",
                            "max": ""
                        }
                    ],
                    "min": "",
                    "max": ""
                },
                "layout_5edb72ca31a12": {
                    "key": "layout_5edb72ca31a12",
                    "name": "the_companys_stock",
                    "label": "The company's stock section",
                    "display": "block",
                    "sub_fields": [
                        {
                            "key": "field_5edb72d231a13",
                            "label": "Title",
                            "name": "title",
                            "type": "text",
                            "instructions": "",
                            "required": 0,
                            "conditional_logic": 0,
                            "wrapper": {
                                "width": "",
                                "class": "",
                                "id": ""
                            },
                            "default_value": "",
                            "placeholder": "",
                            "prepend": "",
                            "append": "",
                            "maxlength": ""
                        },
                        {
                            "key": "field_5edb72db31a14",
                            "label": "Content",
                            "name": "content",
                            "type": "wysiwyg",
                            "instructions": "",
                            "required": 0,
                            "conditional_logic": 0,
                            "wrapper": {
                                "width": "",
                                "class": "",
                                "id": ""
                            },
                            "default_value": "",
                            "tabs": "all",
                            "toolbar": "full",
                            "media_upload": 1,
                            "delay": 0
                        },
                        {
                            "key": "field_5edb72ea31a15",
                            "label": "Stock Chart SVG",
                            "name": "stock_chart_svg",
                            "type": "image",
                            "instructions": "",
                            "required": 0,
                            "conditional_logic": 0,
                            "wrapper": {
                                "width": "",
                                "class": "",
                                "id": ""
                            },
                            "return_format": "array",
                            "preview_size": "medium_large",
                            "library": "all",
                            "min_width": "",
                            "min_height": "",
                            "min_size": "",
                            "max_width": "",
                            "max_height": "",
                            "max_size": "",
                            "mime_types": ""
                        },
                        {
                            "key": "field_5edb72f531a16",
                            "label": "Stock data",
                            "name": "stock_data",
                            "type": "repeater",
                            "instructions": "",
                            "required": 0,
                            "conditional_logic": 0,
                            "wrapper": {
                                "width": "",
                                "class": "",
                                "id": ""
                            },
                            "collapsed": "",
                            "min": 0,
                            "max": 0,
                            "layout": "table",
                            "button_label": "",
                            "sub_fields": [
                                {
                                    "key": "field_5edb731231a17",
                                    "label": "Color",
                                    "name": "color",
                                    "type": "color_picker",
                                    "instructions": "",
                                    "required": 0,
                                    "conditional_logic": 0,
                                    "wrapper": {
                                        "width": "",
                                        "class": "",
                                        "id": ""
                                    },
                                    "default_value": ""
                                },
                                {
                                    "key": "field_5edb731f31a18",
                                    "label": "Value",
                                    "name": "value",
                                    "type": "textarea",
                                    "instructions": "",
                                    "required": 0,
                                    "conditional_logic": 0,
                                    "wrapper": {
                                        "width": "",
                                        "class": "",
                                        "id": ""
                                    },
                                    "default_value": "",
                                    "placeholder": "",
                                    "maxlength": "",
                                    "rows": "",
                                    "new_lines": ""
                                },
                                {
                                    "key": "field_5edb732731a19",
                                    "label": "Description",
                                    "name": "description",
                                    "type": "textarea",
                                    "instructions": "",
                                    "required": 0,
                                    "conditional_logic": 0,
                                    "wrapper": {
                                        "width": "",
                                        "class": "",
                                        "id": ""
                                    },
                                    "default_value": "",
                                    "placeholder": "",
                                    "maxlength": "",
                                    "rows": "",
                                    "new_lines": ""
                                }
                            ]
                        }
                    ],
                    "min": "",
                    "max": ""
                }
            },
            "button_label": "Add Section",
            "min": "",
            "max": ""
        }
    ],
    "location": [
        [
            {
                "param": "page_template",
                "operator": "==",
                "value": "template-financial.php"
            }
        ]
    ],
    "menu_order": 0,
    "position": "normal",
    "style": "default",
    "label_placement": "top",
    "instruction_placement": "label",
    "hide_on_screen": "",
    "active": 1,
    "description": "",
    "modified": 1592221210
}